<?xml version="1.0" encoding="utf-8"?>
<!-- Generator: Adobe Illustrator 15.0.0, SVG Export Plug-In . SVG Version: 6.00 Build 0)  -->
<!DOCTYPE svg PUBLIC "-//W3C//DTD SVG 1.1//EN" "http://www.w3.org/Graphics/SVG/1.1/DTD/svg11.dtd">
<svg version="1.1"
	 id="Layer_1" xmlns:v="http://schemas.microsoft.com/visio/2003/SVGExtensions/" xmlns:ev="http://www.w3.org/2001/xml-events"
	 xmlns="http://www.w3.org/2000/svg" xmlns:xlink="http://www.w3.org/1999/xlink" x="0px" y="0px" width="740px" height="211px"
	 viewBox="61.445 6.774 740 211" enable-background="new 61.445 6.774 740 211" xml:space="preserve">
<v:documentProperties  v:metric="true" v:langID="1033" v:viewMarkup="false">
	<v:userDefs>
		<v:ud  v:nameU="msvSubprocessMaster" v:val="VT4(Rectangle)" v:prompt=""></v:ud>
		<v:ud  v:nameU="msvNoAutoConnect" v:val="VT0(1):26"></v:ud>
	</v:userDefs>
</v:documentProperties>
<g>
	<v:userDefs>
		<v:ud  v:nameU="msvThemeOrder" v:val="VT0(0):26"></v:ud>
	</v:userDefs>
	<title>Page-1</title>
	
		<v:pageProperties  v:shadowOffsetY="-8.50394" v:shadowOffsetX="8.50394" v:drawingUnits="24" v:pageScale="0.0393701" v:drawingScale="0.0393701">
		</v:pageProperties>
	<v:layer  v:name="Flowchart" v:index="0"></v:layer>
	<g id="shape13-1" transform="translate(162.992,1777.61) rotate(180)">
		<title>Simple Arrow</title>
		<v:userDefs>
			<v:ud  v:nameU="visVersion" v:val="VT0(15):26"></v:ud>
			<v:ud  v:nameU="ArrowType" v:val="VT0(2):26" v:prompt=""></v:ud>
		</v:userDefs>
		
			<path fill="#BDD0E8" stroke="#FEFFFF" stroke-width="1.5" stroke-linecap="round" stroke-linejoin="round" stroke-miterlimit="3" d="
			M-30,1664.549l11.341-11.34v5.67h45.35v5.67v5.67h-45.35v5.67L-30,1664.549z"/>
	</g>
	<g id="shape14-3" transform="translate(333.071,1777.61) rotate(180)">
		<title>Simple Arrow.14</title>
		<v:userDefs>
			<v:ud  v:nameU="visVersion" v:val="VT0(15):26"></v:ud>
			<v:ud  v:nameU="ArrowType" v:val="VT0(2):26" v:prompt=""></v:ud>
		</v:userDefs>
		
			<path fill="#BDD0E8" stroke="#FEFFFF" stroke-width="1.5" stroke-linecap="round" stroke-linejoin="round" stroke-miterlimit="3" d="
			M-30,1664.549l11.34-11.34v5.67h45.35v5.67v5.67h-45.35v5.67L-30,1664.549z"/>
	</g>
	<g id="shape15-5" transform="translate(-430.578,1380.08) rotate(-126.027)">
		<title>Simple Arrow.15</title>
		<v:userDefs>
			<v:ud  v:nameU="visVersion" v:val="VT0(15):26"></v:ud>
			<v:ud  v:nameU="ArrowType" v:val="VT0(2):26" v:prompt=""></v:ud>
		</v:userDefs>
		
			<path fill="#BDD0E8" stroke="#FEFFFF" stroke-width="1.5" stroke-linecap="round" stroke-linejoin="round" stroke-miterlimit="3" d="
			M394.813,1478.777l11.34-11.34l0,5.67h85.05l0,5.67l0,5.67l-85.05,0.001l0,5.67L394.813,1478.777z"/>
	</g>
	<g id="shape16-7" transform="translate(503.15,1777.61) rotate(180)">
		<title>Simple Arrow.16</title>
		<v:userDefs>
			<v:ud  v:nameU="visVersion" v:val="VT0(15):26"></v:ud>
			<v:ud  v:nameU="ArrowType" v:val="VT0(2):26" v:prompt=""></v:ud>
		</v:userDefs>
		
			<path fill="#BDD0E8" stroke="#FEFFFF" stroke-width="1.5" stroke-linecap="round" stroke-linejoin="round" stroke-miterlimit="3" d="
			M-30,1664.55l11.34-11.34v5.67h45.35v5.67v5.67h-45.35v5.67L-30,1664.55z"/>
	</g>
	<g id="shape24-9" transform="translate(616.535,-531.496)">
		<title>Simple Double Arrow</title>
		<v:userDefs>
			<v:ud  v:nameU="visVersion" v:val="VT0(15):26"></v:ud>
			<v:ud  v:nameU="ArrowType" v:val="VT0(3):26" v:prompt=""></v:ud>
		</v:userDefs>
		
			<path fill="#BDD0E8" stroke="#FEFFFF" stroke-width="1.5" stroke-linecap="round" stroke-linejoin="round" stroke-miterlimit="3" d="
			M30,644.551L41.34,633.21v5.671h34.01v-5.671l11.34,11.341l-11.34,11.34v-5.67H41.34v5.67L30,644.551z"/>
	</g>
	<g id="shape25-11" transform="translate(616.535,-453.543)">
		<title>Simple Double Arrow.25</title>
		<v:userDefs>
			<v:ud  v:nameU="visVersion" v:val="VT0(15):26"></v:ud>
			<v:ud  v:nameU="ArrowType" v:val="VT0(3):26" v:prompt=""></v:ud>
		</v:userDefs>
		
			<path fill="#BDD0E8" stroke="#FEFFFF" stroke-width="1.5" stroke-linecap="round" stroke-linejoin="round" stroke-miterlimit="3" d="
			M30,644.551L41.34,633.21v5.67h34.01v-5.67l11.34,11.341l-11.34,11.34v-5.67H41.34v5.67L30,644.551z"/>
	</g>
	<g id="shape26-13" transform="translate(-487.271,21.9335) rotate(-53.9726)">
		<title>Simple Double Arrow.26</title>
		<v:userDefs>
			<v:ud  v:nameU="visVersion" v:val="VT0(15):26"></v:ud>
			<v:ud  v:nameU="ArrowType" v:val="VT0(3):26" v:prompt=""></v:ud>
		</v:userDefs>
		
			<path fill="#BDD0E8" stroke="#FEFFFF" stroke-width="1.5" stroke-linecap="round" stroke-linejoin="round" stroke-miterlimit="3" d="
			M430.1,878.844l11.34-11.34l0,5.67l73.71-0.001l0-5.67l11.34,11.34l-11.34,11.34l0-5.67h-73.71l0,5.67L430.1,878.844z"/>
	</g>
	<g id="shape29-15" transform="translate(446.457,-453.543)">
		<title>Simple Double Arrow.29</title>
		<v:userDefs>
			<v:ud  v:nameU="visVersion" v:val="VT0(15):26"></v:ud>
			<v:ud  v:nameU="ArrowType" v:val="VT0(3):26" v:prompt=""></v:ud>
		</v:userDefs>
		
			<path fill="#BDD0E8" stroke="#FEFFFF" stroke-width="1.5" stroke-linecap="round" stroke-linejoin="round" stroke-miterlimit="3" d="
			M29.999,644.551L41.34,633.21v5.67h34.01v-5.67l11.34,11.341l-11.34,11.34v-5.67H41.34v5.67L29.999,644.551z"/>
	</g>
	<g id="shape30-17" transform="translate(276.378,-453.543)">
		<title>Simple Double Arrow.30</title>
		<v:userDefs>
			<v:ud  v:nameU="visVersion" v:val="VT0(15):26"></v:ud>
			<v:ud  v:nameU="ArrowType" v:val="VT0(3):26" v:prompt=""></v:ud>
		</v:userDefs>
		
			<path fill="#BDD0E8" stroke="#FEFFFF" stroke-width="1.5" stroke-linecap="round" stroke-linejoin="round" stroke-miterlimit="3" d="
			M30,644.551l11.34-11.341v5.67h34.01v-5.67l11.34,11.341l-11.34,11.34v-5.67H41.34v5.67L30,644.551z"/>
	</g>
	<g id="shape31-19" transform="translate(1863.21,566.362) rotate(90)">
		<title>Simple Double Arrow.31</title>
		<v:userDefs>
			<v:ud  v:nameU="visVersion" v:val="VT0(15):26"></v:ud>
			<v:ud  v:nameU="ArrowType" v:val="VT0(3):26" v:prompt=""></v:ud>
		</v:userDefs>
		
			<path fill="#BDD0E8" stroke="#FEFFFF" stroke-width="1.5" stroke-linecap="round" stroke-linejoin="round" stroke-miterlimit="3" d="
			M-510,1124.55l11.34-11.341v5.671h12.75v-5.671l11.34,11.341l-11.34,11.34v-5.67h-12.75v5.67L-510,1124.55z"/>
	</g>
	<g id="shape33-21" transform="translate(-600.656,1302.13) rotate(-126.027)">
		<title>Simple Arrow.33</title>
		<v:userDefs>
			<v:ud  v:nameU="visVersion" v:val="VT0(15):26"></v:ud>
			<v:ud  v:nameU="ArrowType" v:val="VT0(2):26" v:prompt=""></v:ud>
		</v:userDefs>
		
			<path fill="#BDD0E8" stroke="#FEFFFF" stroke-width="1.5" stroke-linecap="round" stroke-linejoin="round" stroke-miterlimit="3" d="
			M394.813,1478.777l11.34-11.34l0,5.67l85.049,0.001l0,5.67l0,5.67h-85.05l0,5.67L394.813,1478.777z"/>
	</g>
	<g id="shape2-23" transform="translate(35.4331,-510.236)">
		<title>Database</title>
		<desc>C-SPARQL</desc>
		<v:custProps>
			<v:cp  v:type="7" v:lbl="Cost" v:nameU="Cost" v:format="@" v:langID="1033"></v:cp>
			<v:cp  v:type="2" v:lbl="Duration" v:nameU="Duration" v:langID="1033"></v:cp>
			<v:cp  v:lbl="Resources" v:nameU="Resources" v:langID="1033"></v:cp>
		</v:custProps>
		<v:userDefs>
			<v:ud  v:nameU="visVersion" v:val="VT0(15):26"></v:ud>
		</v:userDefs>
		<v:textBlock  v:tabSpace="42.5197" v:margins="rect(2,2,2,2)"></v:textBlock>
		<v:textRect  height="21.2598" width="70.87" cy="1143.92" cx="35.4331"></v:textRect>
		<path fill="#5B9AD4" d="M30,609.121v28.34c0,3.914,15.865,7.087,35.436,7.087s35.435-3.173,35.435-7.087v-28.34
			c0-3.914-15.864-7.088-35.435-7.088S30,605.207,30,609.121z"/>
		<path fill="none" stroke="#FEFFFF" stroke-width="1.5" stroke-linecap="round" stroke-linejoin="round" stroke-miterlimit="3" d="
			M30,609.121v28.34c0,3.914,15.865,7.087,35.436,7.087s35.435-3.173,35.435-7.087v-28.34c0-3.914-15.864-7.088-35.435-7.088
			S30,605.207,30,609.121"/>
		<path fill="none" stroke="#FEFFFF" stroke-width="1.5" stroke-linecap="round" stroke-linejoin="round" stroke-miterlimit="3" d="
			M30,609.121c0,3.914,15.865,7.087,35.436,7.087s35.435-3.173,35.435-7.087"/>
		<path fill="none" stroke="#FEFFFF" stroke-width="1.5" stroke-linecap="round" stroke-linejoin="round" stroke-miterlimit="3" d="
			M30,612.66c0,3.914,15.865,7.088,35.436,7.088s35.435-3.174,35.435-7.088"/>
		<path fill="none" stroke="#FEFFFF" stroke-width="1.5" stroke-linecap="round" stroke-linejoin="round" stroke-miterlimit="3" d="
			M30,616.2c0,3.914,15.865,7.087,35.436,7.087s35.435-3.173,35.435-7.087"/>
		
			<text transform="matrix(1 0 0 1 41.25 637.5201)" fill="#FEFFFF" enable-background="new    " font-family="'Calibri'" font-size="12.0001">C-SPARQL<v:paragraph  v:horizAlign="1"></v:paragraph><v:tabList></v:tabList></text>
	</g>
	<g id="shape3-30" transform="translate(162.992,-510.236)">
		<title>Rectangle</title>
		<desc>C-SPARQL Adapter</desc>
		<v:userDefs>
			<v:ud  v:nameU="visVersion" v:val="VT0(15):26"></v:ud>
		</v:userDefs>
		<v:textBlock  v:tabSpace="42.5197" v:margins="rect(4,4,4,4)"></v:textBlock>
		<v:textRect  height="42.5197" width="113.39" cy="1133.29" cx="56.6929"></v:textRect>
		
			<rect x="30.001" y="602.03" fill="#70AC47" stroke="#FEFFFF" stroke-width="1.5" stroke-linecap="round" stroke-linejoin="round" stroke-miterlimit="3" width="113.386" height="42.521"/>
		
			<text transform="matrix(1 0 0 1 41.4201 626.8903)" fill="#FEFFFF" enable-background="new    " font-family="'Calibri'" font-size="12.0001">C-SPARQL Adapter<v:paragraph  v:horizAlign="1"></v:paragraph><v:tabList></v:tabList></text>
	</g>
	<g id="shape7-33" transform="translate(673.228,-510.236)">
		<title>Database.7</title>
		<desc>Graphite</desc>
		<v:custProps>
			<v:cp  v:type="7" v:lbl="Cost" v:nameU="Cost" v:format="@" v:langID="1033"></v:cp>
			<v:cp  v:type="2" v:lbl="Duration" v:nameU="Duration" v:langID="1033"></v:cp>
			<v:cp  v:lbl="Resources" v:nameU="Resources" v:langID="1033"></v:cp>
		</v:custProps>
		<v:userDefs>
			<v:ud  v:nameU="visVersion" v:val="VT0(15):26"></v:ud>
		</v:userDefs>
		<v:textBlock  v:tabSpace="42.5197" v:margins="rect(2,2,2,2)"></v:textBlock>
		<v:textRect  height="21.2598" width="70.87" cy="1143.92" cx="35.4331"></v:textRect>
		<path fill="#5B9AD4" d="M30,609.121v28.34c0,3.914,15.865,7.087,35.435,7.087c19.57,0,35.436-3.173,35.436-7.087v-28.34
			c0-3.914-15.865-7.088-35.436-7.088C45.865,602.033,30,605.207,30,609.121z"/>
		<path fill="none" stroke="#FEFFFF" stroke-width="1.5" stroke-linecap="round" stroke-linejoin="round" stroke-miterlimit="3" d="
			M30,609.121v28.34c0,3.914,15.865,7.087,35.435,7.087c19.57,0,35.436-3.173,35.436-7.087v-28.34
			c0-3.914-15.865-7.088-35.436-7.088C45.865,602.033,30,605.207,30,609.121"/>
		<path fill="none" stroke="#FEFFFF" stroke-width="1.5" stroke-linecap="round" stroke-linejoin="round" stroke-miterlimit="3" d="
			M30,609.121c0,3.914,15.865,7.087,35.435,7.087c19.57,0,35.436-3.173,35.436-7.087"/>
		<path fill="none" stroke="#FEFFFF" stroke-width="1.5" stroke-linecap="round" stroke-linejoin="round" stroke-miterlimit="3" d="
			M30,612.66c0,3.914,15.865,7.088,35.435,7.088c19.57,0,35.436-3.174,35.436-7.088"/>
		<path fill="none" stroke="#FEFFFF" stroke-width="1.5" stroke-linecap="round" stroke-linejoin="round" stroke-miterlimit="3" d="
			M30,616.2c0,3.914,15.865,7.087,35.435,7.087c19.57,0,35.436-3.173,35.436-7.087"/>
		
			<text transform="matrix(1 0 0 1 44.0097 637.5201)" fill="#FEFFFF" enable-background="new    " font-family="'Calibri'" font-size="12.0001">Graphite<v:paragraph  v:horizAlign="1"></v:paragraph><v:tabList></v:tabList></text>
	</g>
	<g id="shape8-40" transform="translate(673.228,-432.283)">
		<title>Database.8</title>
		<desc>MongoDB</desc>
		<v:custProps>
			<v:cp  v:type="7" v:lbl="Cost" v:nameU="Cost" v:format="@" v:langID="1033"></v:cp>
			<v:cp  v:type="2" v:lbl="Duration" v:nameU="Duration" v:langID="1033"></v:cp>
			<v:cp  v:lbl="Resources" v:nameU="Resources" v:langID="1033"></v:cp>
		</v:custProps>
		<v:userDefs>
			<v:ud  v:nameU="visVersion" v:val="VT0(15):26"></v:ud>
		</v:userDefs>
		<v:textBlock  v:tabSpace="42.5197" v:margins="rect(2,2,2,2)"></v:textBlock>
		<v:textRect  height="21.2598" width="70.87" cy="1143.92" cx="35.4331"></v:textRect>
		<path fill="#5B9AD4" d="M30,609.12v28.341c0,3.914,15.865,7.087,35.435,7.087c19.57,0,35.436-3.173,35.436-7.087V609.12
			c0-3.914-15.865-7.087-35.436-7.087C45.865,602.033,30,605.206,30,609.12z"/>
		<path fill="none" stroke="#FEFFFF" stroke-width="1.5" stroke-linecap="round" stroke-linejoin="round" stroke-miterlimit="3" d="
			M30,609.12v28.341c0,3.914,15.865,7.087,35.435,7.087c19.57,0,35.436-3.173,35.436-7.087V609.12
			c0-3.914-15.865-7.087-35.436-7.087C45.865,602.033,30,605.206,30,609.12"/>
		<path fill="none" stroke="#FEFFFF" stroke-width="1.5" stroke-linecap="round" stroke-linejoin="round" stroke-miterlimit="3" d="
			M30,609.12c0,3.914,15.865,7.087,35.435,7.087c19.57,0,35.436-3.173,35.436-7.087"/>
		<path fill="none" stroke="#FEFFFF" stroke-width="1.5" stroke-linecap="round" stroke-linejoin="round" stroke-miterlimit="3" d="
			M30,612.66c0,3.914,15.865,7.088,35.435,7.088c19.57,0,35.436-3.174,35.436-7.088"/>
		<path fill="none" stroke="#FEFFFF" stroke-width="1.5" stroke-linecap="round" stroke-linejoin="round" stroke-miterlimit="3" d="
			M30,616.2c0,3.914,15.865,7.087,35.435,7.087c19.57,0,35.436-3.173,35.436-7.087"/>
		
			<text transform="matrix(1 0 0 1 41.04 637.5203)" fill="#FEFFFF" enable-background="new    " font-family="'Calibri'" font-size="12.0001">MongoDB<v:paragraph  v:horizAlign="1"></v:paragraph><v:tabList></v:tabList></text>
	</g>
	<g id="shape9-47" transform="translate(651.969,-588.189)">
		<title>Rounded Rectangle</title>
		<desc>Dashboard</desc>
		<v:userDefs>
			<v:ud  v:nameU="CTypeTopLeftSnip" v:val="VT0(0):5" v:prompt=""></v:ud>
			<v:ud  v:nameU="CTypeTopRightSnip" v:val="VT0(0):5" v:prompt=""></v:ud>
			<v:ud  v:nameU="CTypeBotLeftSnip" v:val="VT0(0):5" v:prompt=""></v:ud>
			<v:ud  v:nameU="CTypeBotRightSnip" v:val="VT0(0):5" v:prompt=""></v:ud>
			<v:ud  v:nameU="CornerLockHoriz" v:val="VT0(1):5" v:prompt=""></v:ud>
			<v:ud  v:nameU="CornerLockVert" v:val="VT0(1):5" v:prompt=""></v:ud>
			<v:ud  v:nameU="CornerLockDiag" v:val="VT0(0):5" v:prompt=""></v:ud>
			<v:ud  v:nameU="TopLeftOffset" v:val="VT0(0.15748031496063):24" v:prompt=""></v:ud>
			<v:ud  v:nameU="TopRightOffset" v:val="VT0(0.15748031496063):24" v:prompt=""></v:ud>
			<v:ud  v:nameU="BotLeftOffset" v:val="VT0(0.15748031496063):24" v:prompt=""></v:ud>
			<v:ud  v:nameU="BotRightOffset" v:val="VT0(0.15748031496063):24" v:prompt=""></v:ud>
			<v:ud  v:nameU="visVersion" v:val="VT0(15):26" v:prompt=""></v:ud>
		</v:userDefs>
		<v:textBlock  v:tabSpace="42.5197" v:margins="rect(4,4,4,4)"></v:textBlock>
		<v:textRect  height="42.5197" width="113.39" cy="1133.29" cx="56.6929"></v:textRect>
		
			<linearGradient id="SVGID_1_" gradientUnits="userSpaceOnUse" x1="-544.7718" y1="1584.7124" x2="-543.7718" y2="1584.7124" gradientTransform="matrix(6.943135e-015 42.52 113.39 -2.603600e-015 -179603.9375 23765.7324)">
			<stop  offset="0.1" style="stop-color:#5B9AD4"/>
			<stop  offset="1" style="stop-color:#29669E"/>
		</linearGradient>
		
			<path fill="url(#SVGID_1_)" stroke="#FEFFFF" stroke-width="1.5" stroke-linecap="round" stroke-linejoin="round" stroke-miterlimit="3" d="
			M41.34,644.55h90.71c6.262,0.001,11.339-5.075,11.34-11.337c0-0.001,0-0.002,0-0.003v-19.84c0.001-6.263-5.075-11.34-11.337-11.34
			c-0.001,0-0.002,0-0.003,0H41.34c-6.262-0.001-11.339,5.074-11.34,11.336c0,0.002,0,0.002,0,0.004v19.84
			c-0.001,6.262,5.074,11.339,11.337,11.34C41.338,644.55,41.339,644.55,41.34,644.55z"/>
		
			<text transform="matrix(1 0 0 1 60.1906 626.8901)" fill="#FEFFFF" enable-background="new    " font-family="'Calibri'" font-size="12.0001">Dashboard<v:paragraph  v:horizAlign="1"></v:paragraph><v:tabList></v:tabList></text>
	</g>
	<g id="shape12-52" transform="translate(162.992,-432.283)">
		<title>Snip Corner Rectangle</title>
		<desc>Client</desc>
		<v:userDefs>
			<v:ud  v:nameU="CTypeTopLeftSnip" v:val="VT0(1):5" v:prompt=""></v:ud>
			<v:ud  v:nameU="CTypeTopRightSnip" v:val="VT0(1):5" v:prompt=""></v:ud>
			<v:ud  v:nameU="CTypeBotLeftSnip" v:val="VT0(1):5" v:prompt=""></v:ud>
			<v:ud  v:nameU="CTypeBotRightSnip" v:val="VT0(1):5" v:prompt=""></v:ud>
			<v:ud  v:nameU="CornerLockHoriz" v:val="VT0(0):5" v:prompt=""></v:ud>
			<v:ud  v:nameU="CornerLockVert" v:val="VT0(0):5" v:prompt=""></v:ud>
			<v:ud  v:nameU="CornerLockDiag" v:val="VT0(0):5" v:prompt=""></v:ud>
			<v:ud  v:nameU="TopLeftOffset" v:val="VT0(0.15748031496063):24" v:prompt=""></v:ud>
			<v:ud  v:nameU="TopRightOffset" v:val="VT0(0.15748031496063):24" v:prompt=""></v:ud>
			<v:ud  v:nameU="BotLeftOffset" v:val="VT0(0.15748031496063):24" v:prompt=""></v:ud>
			<v:ud  v:nameU="BotRightOffset" v:val="VT0(0.15748031496063):24" v:prompt=""></v:ud>
			<v:ud  v:nameU="visVersion" v:val="VT0(15):26" v:prompt=""></v:ud>
		</v:userDefs>
		<v:textBlock  v:tabSpace="42.5197" v:margins="rect(4,4,4,4)"></v:textBlock>
		<v:textRect  height="42.5197" width="113.39" cy="1133.29" cx="56.6929"></v:textRect>
		
			<linearGradient id="SVGID_2_" gradientUnits="userSpaceOnUse" x1="-55.7948" y1="1428.8064" x2="-54.7948" y2="1428.8064" gradientTransform="matrix(6.943135e-015 42.52 113.39 -2.603600e-015 -161925.7031 2974.4224)">
			<stop  offset="0.1" style="stop-color:#759FCB"/>
			<stop  offset="1" style="stop-color:#396899"/>
		</linearGradient>
		
			<path fill="url(#SVGID_2_)" stroke="#FEFFFF" stroke-width="1.5" stroke-linecap="round" stroke-linejoin="round" stroke-miterlimit="3" d="
			M41.34,644.551h90.71l11.34-11.34V613.37l-11.34-11.34H41.34l-11.34,11.34v19.841L41.34,644.551z"/>
		
			<text transform="matrix(1 0 0 1 72.59 626.8904)" fill="#FEFFFF" enable-background="new    " font-family="'Calibri'" font-size="12.0001">Client<v:paragraph  v:horizAlign="1"></v:paragraph><v:tabList></v:tabList></text>
	</g>
	<g id="shape4-57" transform="translate(333.071,-510.236)">
		<title>Rectangle.4</title>
		<desc>Messaging Middleware</desc>
		<v:userDefs>
			<v:ud  v:nameU="visVersion" v:val="VT0(15):26"></v:ud>
		</v:userDefs>
		<v:textBlock  v:tabSpace="42.5197" v:margins="rect(4,4,4,4)"></v:textBlock>
		<v:textRect  height="42.5197" width="113.39" cy="1133.29" cx="56.6929"></v:textRect>
		
			<rect x="30" y="602.03" fill="#FCBF01" stroke="#FEFFFF" stroke-width="1.5" stroke-linecap="round" stroke-linejoin="round" stroke-miterlimit="3" width="113.387" height="42.521"/>
		<text transform="matrix(1 0 0 1 60.8298 619.6901)" fill="#FEFFFF" font-family="'Calibri'" font-size="12.0001">Messaging </text>
		<text transform="matrix(1 0 0 1 57.28 634.0905)" fill="#FEFFFF" font-family="'Calibri'" font-size="12.0001">Middleware</text>
		<v:paragraph  v:horizAlign="1"></v:paragraph>
		<v:tabList></v:tabList>
	</g>
	<g id="shape6-61" transform="translate(503.15,-510.236)">
		<title>Rectangle.6</title>
		<desc>Graphite Adapter</desc>
		<v:userDefs>
			<v:ud  v:nameU="visVersion" v:val="VT0(15):26"></v:ud>
		</v:userDefs>
		<v:textBlock  v:tabSpace="42.5197" v:margins="rect(4,4,4,4)"></v:textBlock>
		<v:textRect  height="42.5197" width="113.39" cy="1133.29" cx="56.6929"></v:textRect>
		
			<rect x="30" y="602.03" fill="#EC7D31" stroke="#FEFFFF" stroke-width="1.5" stroke-linecap="round" stroke-linejoin="round" stroke-miterlimit="3" width="113.386" height="42.521"/>
		
			<text transform="matrix(1 0 0 1 44.1698 626.8903)" fill="#FEFFFF" enable-background="new    " font-family="'Calibri'" font-size="12.0001">Graphite Adapter<v:paragraph  v:horizAlign="1"></v:paragraph><v:tabList></v:tabList></text>
	</g>
	<g id="shape10-64" transform="translate(333.071,-432.283)">
		<title>Rectangle.10</title>
		<desc>Query Dispatcher</desc>
		<v:userDefs>
			<v:ud  v:nameU="visVersion" v:val="VT0(15):26"></v:ud>
		</v:userDefs>
		<v:textBlock  v:tabSpace="42.5197" v:margins="rect(4,4,4,4)"></v:textBlock>
		<v:textRect  height="42.5197" width="113.39" cy="1133.29" cx="56.6929"></v:textRect>
		
			<rect x="30" y="602.03" fill="#FCBF01" stroke="#FEFFFF" stroke-width="1.5" stroke-linecap="round" stroke-linejoin="round" stroke-miterlimit="3" width="113.387" height="42.52"/>
		
			<text transform="matrix(1 0 0 1 44.1399 626.8904)" fill="#FEFFFF" enable-background="new    " font-family="'Calibri'" font-size="12.0001">Query Dispatcher<v:paragraph  v:horizAlign="1"></v:paragraph><v:tabList></v:tabList></text>
	</g>
	<g id="shape5-67" transform="translate(503.15,-432.283)">
		<title>Rectangle.5</title>
		<desc>MongoDB Adapter</desc>
		<v:userDefs>
			<v:ud  v:nameU="visVersion" v:val="VT0(15):26"></v:ud>
		</v:userDefs>
		<v:textBlock  v:tabSpace="42.5197" v:margins="rect(4,4,4,4)"></v:textBlock>
		<v:textRect  height="42.5197" width="113.39" cy="1133.29" cx="56.6929"></v:textRect>
		
			<rect x="30" y="602.03" fill="#EC7D31" stroke="#FEFFFF" stroke-width="1.5" stroke-linecap="round" stroke-linejoin="round" stroke-miterlimit="3" width="113.386" height="42.52"/>
		
			<text transform="matrix(1 0 0 1 41.2098 626.8904)" fill="#FEFFFF" enable-background="new    " font-family="'Calibri'" font-size="12.0001">MongoDB Adapter<v:paragraph  v:horizAlign="1"></v:paragraph><v:tabList></v:tabList></text>
	</g>
	<g id="shape32-70" transform="translate(162.992,-588.189)">
		<title>Rectangle.32</title>
		<desc>REST Adapter</desc>
		<v:userDefs>
			<v:ud  v:nameU="visVersion" v:val="VT0(15):26"></v:ud>
		</v:userDefs>
		<v:textBlock  v:tabSpace="42.5197" v:margins="rect(4,4,4,4)"></v:textBlock>
		<v:textRect  height="42.5197" width="113.39" cy="1133.29" cx="56.6929"></v:textRect>
		
			<rect x="30.001" y="602.031" fill="#70AC47" stroke="#FEFFFF" stroke-width="1.5" stroke-linecap="round" stroke-linejoin="round" stroke-miterlimit="3" width="113.386" height="42.52"/>
		
			<text transform="matrix(1 0 0 1 53.7301 626.8901)" fill="#FEFFFF" enable-background="new    " font-family="'Calibri'" font-size="12.0001">REST Adapter<v:paragraph  v:horizAlign="1"></v:paragraph><v:tabList></v:tabList></text>
	</g>
</g>
</svg>
